...
----------------------------------------------------------------------
Ran 3 tests in 0.001s

OK
Name             Stmts   Miss Branch BrPart  Cover   Missing
------------------------------------------------------------
Netflix.py          46      3      6      1    92%   25-28, 21->25
TestNetflix.py      21      0      0      0   100%
------------------------------------------------------------
TOTAL               67      3      6      1    95%
